<svg xmlns="http://www.w3.org/2000/svg" width="28" height="28" viewBox="0 0 28 28">
  <g id="Group_5293" data-name="Group 5293" transform="translate(18866 -1566)">
    <rect id="Rectangle_626" data-name="Rectangle 626" width="28" height="28" transform="translate(-18866 1566)" fill="none"/>
    <g id="Group_5265" data-name="Group 5265" transform="translate(-18866.854 1564.244)">
      <g id="Group_1542" data-name="Group 1542" transform="translate(4.854 8.755)">
        <rect id="Rectangle_627" data-name="Rectangle 627" width="20.146" height="13.631" rx="1" transform="translate(0 0)" fill="none" stroke="#fff" stroke-linecap="round" stroke-linejoin="round" stroke-width="1"/>
        <path id="Path_1016" data-name="Path 1016" d="M32.3,120.456l5.1-4.894a.838.838,0,0,1,1.192,0l4.662,4.646a.838.838,0,0,0,1.192,0l2.153-2.146a.838.838,0,0,1,1.192,0l4.653,4.1" transform="translate(-32.302 -110.52)" fill="none" stroke="#fff" stroke-linecap="round" stroke-linejoin="round" stroke-width="1"/>
      </g>
      <circle id="Ellipse_82" data-name="Ellipse 82" cx="1.5" cy="1.5" r="1.5" transform="translate(19 10.437)" fill="#bfbfbf"/>
    </g>
  </g>
</svg>
